<?xml version="1.0" encoding="UTF-8"?>
<svg width="89px" height="49px" viewBox="0 0 89 49" version="1.1" xmlns="http://www.w3.org/2000/svg" xmlns:xlink="http://www.w3.org/1999/xlink">
    <!-- Generator: Sketch 51.2 (57519) - http://www.bohemiancoding.com/sketch -->
    <title>logo</title>
    <desc>Created with Sketch.</desc>
    <defs/>
    <g id="symbol" stroke="none" stroke-width="1" fill="none" fill-rule="evenodd">
        <g id="hood_vnutrennie" transform="translate(-376.000000, -2.000000)" fill="#3DAE2B">
            <g id="hood">
                <g id="logo" transform="translate(376.000000, 2.000000)">
                    <path d="M89,25 C88.9711816,25.1113734 88.9423632,25.2185703 88.9121725,25.3229829 C88.8600249,25.5053568 88.8051327,25.6793778 88.7502405,25.8450457 L88.7474959,25.8450457 C87.6194615,29.1848556 85.6721611,29.2836995 83.6617348,29.55378 C55.3126646,33.5785364 18.2933735,44.3539132 8.31946307,48 C8.31946307,48 4.68560026,47.8301556 2.92493336,46.902972 C2.76025679,46.8180498 2.61204789,46.7233824 2.48716816,46.6231463 C2.48442355,46.620362 2.48442355,46.6175776 2.48442355,46.6175776 C2.21545184,46.4115368 2.04254145,46.1706918 2,45.8950427 C23.5767465,38.6780461 50.9350127,31.2939895 75.0848305,27.060408 C82.8932442,25.7837903 79.8151648,26.2404213 89,25" id="Fill-1"/>
                    <path d="M77.4300658,17.9035244 C76.6971486,17.7088143 77.8849334,14.9147921 78.0037118,14.671064 C78.6394466,13.3530263 79.1415556,12.4421097 80.0485912,11.3160588 C80.6451831,10.5726201 82.0367808,9.36759595 82.957314,9.58953826 C84.8996119,10.0565702 80.5426017,15.3831857 80.1484731,15.7834988 C78.4869242,17.7673635 77.5542433,17.936203 77.4300658,17.9035244 M40.3225915,19.8955587 C40.2119116,21.731008 36.3597098,24.1492261 34.9789101,25.1758794 C35.9156403,21.2299358 40.1025814,17.7292384 40.3225915,19.8955587 M19.2556099,15.8216238 L24.4697149,6.76147583 C24.4697149,6.76147583 28.0857095,4.83616034 31.6949553,3.36426073 C32.9205332,2.86455013 34.8290872,2.43564322 35.0963388,2.50236207 C34.1528598,6.28355098 19.2556099,15.8216238 19.2556099,15.8216238 M87.9649064,16.7965361 C87.9217142,16.6181653 87.867724,16.4724731 87.8083347,16.3499282 C87.5842754,15.8774498 87.3021765,15.7726059 87.3021765,15.7726059 C87.0092796,16.0639903 86.4153872,16.671268 85.7189134,17.2390591 C85.6433271,17.3016931 85.3355829,17.61214 85.2073562,17.5712917 C85.0156909,17.5113809 85.0993757,15.6105744 85.1560655,15.0128279 C85.2640459,13.8949467 85.4948541,12.8233603 85.8214949,11.785814 C86.0334064,11.1104558 86.5112198,10.2077089 86.5058208,9.5064801 C86.5058208,9.37576561 86.4855745,9.25458238 86.4491311,9.14429203 C86.4072887,9.02310881 86.3411507,8.91145685 86.2466678,8.81478259 C85.914628,8.4771035 85.5960857,8.95230513 85.1938586,8.58467063 C84.601316,8.04819658 84.1437489,7.6397138 83.2974523,7.77723634 C81.4671841,8.07134394 79.9433103,9.03264008 78.559811,10.0674631 C75.6254429,12.2610156 73.7411844,15.1367344 72.7869074,17.5195506 C72.2119116,18.9546867 69.4098195,21.2163197 68.5230302,21.2394671 C68.4447444,21.2558064 68.4069512,21.225851 68.4150498,21.1523241 C68.4258478,21.0338641 68.4879366,20.8091986 68.606715,20.4851355 C68.7146955,20.1964744 71.0416737,14.7214436 71.5721276,13.3625575 C71.6342163,13.1978028 71.6706597,13.0956821 71.6760587,13.0684499 C71.6760587,13.0684499 71.6760587,13.0657267 71.680108,13.0630035 C71.696305,12.9772221 71.7637928,12.7035386 70.4815252,12.3263729 C70.2061751,12.2419531 69.9362241,12.1316627 69.6568247,12.0608591 C68.5257297,11.7721979 68.4069512,11.9069972 68.0209212,12.8070209 C67.47562,14.0869336 66.2311456,16.838746 66.1042686,17.1015365 C64.9461785,18.1009577 63.6949553,18.5094405 62.0738991,18.5475656 C62.6988358,16.8087906 63.2657331,15.3314445 63.5721276,14.5703049 C63.6207187,14.4436753 63.6639109,14.340193 63.6990046,14.2653045 C63.7179011,14.2190097 63.735448,14.1822463 63.7489455,14.1550141 C63.4519993,13.7220224 62.1197908,13.4497005 60.976548,13.1732938 C60.4555424,13.0493874 60.0708622,13.5844998 59.8063101,14.1495677 C59.4634722,14.869859 58.0340813,18.1894623 57.4091446,19.9105364 C55.0659693,22.1817007 51.9898768,25.0969061 48.6654294,25.4441165 C47.5127383,25.5652997 47.6990046,24.0784224 47.7327484,23.675386 C48.4494685,19.9241525 51.0045554,16.7747503 52.8091783,16.5092365 C53.4435634,16.3703524 54.7109836,17.5086577 51.652438,19.6218753 C51.5390585,19.7757371 51.3919352,20.2686397 51.6429897,20.2904254 C52.6998482,20.3843765 54.9863337,19.0663387 55.6477139,17.9824977 C56.6802767,16.2886558 54.8756538,15.0918013 53.9065294,14.8657741 C53.3504302,14.7364213 52.728193,14.6737872 52.088409,14.8031401 C47.8447781,15.636445 44.7052472,19.8601569 43.3973342,23.4112338 C42.4956977,24.3466594 39.3534672,27.2455255 36.2409313,27.9889642 C35.7320736,28.1101474 35.3082504,28.1414644 34.9978066,27.9522007 C34.5780327,27.6703476 34.780496,26.5088949 34.825038,26.4898324 C36.711996,25.4100762 38.9809347,24.1396948 40.7059221,22.6677952 C41.9314999,21.5894007 42.7926438,20.5477696 42.8925257,19.7049334 C43.0302008,18.5448424 42.0097857,17.7292384 41.1081491,17.4446621 C38.3951409,16.6168036 33.6561498,19.4516741 30.5949047,25.5421523 C28.6404589,27.3707936 26.1812047,29.3832521 23.6355661,30.2288114 C26.0327316,28.6534295 31.9568078,22.0673255 30.4963725,18.0655559 C30.4963725,18.0655559 30.3451999,17.7251536 30.2075249,17.4787023 C30.1616332,17.4010906 30.1157415,17.319394 30.0644508,17.2417823 C29.1520162,15.7943917 27.9102413,15.0918013 26.5253923,14.8507964 C31.5977729,11.1458576 38.0266577,6.22636339 37.1061245,2.93671543 C37.0507845,2.73383565 36.9684495,2.54048713 36.8577695,2.35122344 C36.85507,2.34577701 36.849671,2.33760735 36.8469715,2.33216091 C34.698161,-1.29244293 31.8906698,0.050103797 28.4757888,1.42260593 L27.0045554,2.04077653 C27.0477476,1.903254 27.0801417,1.77253951 27.1017378,1.6540795 C27.1098363,1.62957054 27.1125359,1.60233835 27.1179349,1.57782939 C27.1233339,1.5356195 27.1287329,1.49477122 27.1341319,1.45392294 L27.1341319,1.44847651 C27.1422305,1.3599719 27.139531,1.27827535 27.1314324,1.20611006 L27.1287329,1.20611006 C27.1179349,1.11352063 27.0882403,1.0359089 27.0423486,0.975998093 C26.2986334,0.0255948303 21.3301839,2.39071011 20.7983803,2.89859037 C20.8685676,3.50450649 20.6485574,4.39227572 20.0506158,5.52241141 C20.0506158,5.52241141 15.4884427,8.227929 15.492492,8.17891107 C15.5316349,8.46076419 16.0337439,9.74748494 17.0771048,10.7074195 C12.9414544,18.1009577 4.62696136,31.519617 0,38.990767 C1.44018897,39.1065038 5.94432259,38.1166138 6.42618525,37.0069023 L18.3580226,17.3357333 C18.8034419,18.134998 19.602497,19.3291293 19.8076599,19.2515176 C22.4558799,18.2248642 26.7872448,16.7665807 28.6121141,17.4759791 C28.4460941,20.6825689 23.5707778,29.1899035 9.26337101,33.6913837 C9.28226759,33.6913837 11.7914628,36.2403163 12.6377594,36.0524142 C17.3079129,34.5723449 22.477476,32.4972524 23.61397,31.9812025 C27.5350093,30.341825 29.0764299,28.5404159 30.0806479,27.637669 C30.0644508,27.7670219 29.6014847,31.2949515 33.4617851,30.5978075 C38.1251898,29.7576946 42.3553231,25.762733 43.0585456,25.2548528 C43.0585456,25.2548528 42.5051459,29.2198589 47.6774085,27.6812405 C50.9613633,26.7049666 54.0158596,24.5481776 57.0123165,21.5267666 C56.7720601,22.4227055 56.0769361,24.2241146 56.3185423,24.5454544 C56.3590349,24.5985571 56.4076261,24.6557447 56.4697149,24.7156555 C56.4778134,24.7238252 56.4845622,24.734718 56.49671,24.7415261 C56.5412519,24.7742047 56.5952421,24.8096066 56.6546313,24.8450084 C57.3011642,25.2317054 58.7130083,25.7790723 59.1489792,25.6987374 C59.454024,25.6429114 59.5997975,25.5353443 59.7145267,25.2208126 C59.8279062,24.9294282 60.5486756,22.8230186 61.412519,20.4020774 C62.8918509,20.3734836 64.3009954,19.5592413 65.4253417,18.7463605 C65.0217648,19.9105364 63.8771723,22.1081738 64.4292222,22.9796037 C64.4562173,23.0218136 64.49671,23.0653851 64.5412519,23.1089566 C64.5722963,23.1375504 64.6060402,23.1647826 64.6465328,23.1920148 C65.0568584,23.4833991 65.82082,23.6944486 66.2189978,23.7598058 C68.9063607,24.1778199 72.6748777,19.2855578 72.6937743,18.901584 C72.5088578,22.633755 75.6686351,21.9434191 76.3313649,21.6533963 C79.0362747,20.4647114 81.3389573,16.2587004 81.3389573,16.2587004 C81.3092627,16.2137673 80.7302176,18.4726771 81.1675384,19.6422994 C81.2147798,19.7702907 81.2849671,19.880581 81.3713514,19.9745321 L81.374051,19.9772553 C81.3875485,19.9963178 81.4023958,20.0126571 81.4199426,20.0289964 C81.7641303,20.3639523 82.3107812,20.4851355 82.7346044,20.515091 C83.7496204,20.5886179 84.5513751,20.1529029 85.9740172,18.9274546 C86.6988358,18.3051991 87.3561667,17.6475419 88,16.9558444 C87.989202,16.8986568 87.9784039,16.8469156 87.9649064,16.7965361" id="Fill-4"/>
                    <g id="Group" transform="translate(35.000000, 44.000000)">
                        <path d="M1.68321055,3.11199395 L3.31678945,3.11199395 L2.69290423,1.44911086 C2.6622722,1.37533106 2.63047693,1.28830874 2.59751842,1.18766553 C2.56417216,1.08777904 2.53121365,0.978433598 2.49825514,0.861142641 C2.46529663,0.978433598 2.43272586,1.0881574 2.40054285,1.18955732 C2.36874758,1.29095725 2.3377278,1.379493 2.30709577,1.4559213 L1.68321055,3.11199395 Z M5,5 L4.26289259,5 C4.18030244,5 4.11283443,4.97994703 4.06087631,4.93946273 C4.00853044,4.89935679 3.97014347,4.84903519 3.94377666,4.78887628 L3.56107018,3.76920166 L1.43854207,3.76920166 L1.0558356,4.78887628 C1.03683598,4.84222474 1.00038775,4.89065456 0.946103141,4.93416572 C0.891430787,4.9784336 0.823187282,5 0.740597131,5 L0,5 L2.01279566,0 L2.98720434,0 L5,5 Z" id="Fill-6"/>
                        <polygon id="Fill-8" points="10 0.715853197 7.90824338 0.715853197 7.90824338 5 7 5 7 0 10 0"/>
                        <path d="M11.7821247,2.51381006 L12.3664122,2.51381006 C12.509542,2.51381006 12.634542,2.49262202 12.7414122,2.44986757 C12.8476463,2.40749149 12.9363868,2.3461975 13.0073155,2.26674234 C13.0779262,2.18728717 13.1307252,2.09042754 13.1657125,1.97654181 C13.2006997,1.86227771 13.2178753,1.73477109 13.2178753,1.5944003 C13.2178753,1.46083995 13.2006997,1.33938706 13.1657125,1.23117669 C13.1307252,1.12296633 13.0785623,1.03064699 13.0085878,0.954218691 C12.9389313,0.878547106 12.850827,0.820279985 12.7442748,0.779795687 C12.6374046,0.739689747 12.5114504,0.719258418 12.3664122,0.719258418 L11.7821247,0.719258418 L11.7821247,2.51381006 Z M11.7821247,3.23987893 L11.7821247,5 L11,5 L11,0 L12.3664122,0 C12.6472646,0 12.8905852,0.0393492244 13.096056,0.117669315 C13.3012087,0.195989406 13.4707379,0.305713205 13.6043257,0.446083995 C13.7382316,0.586833144 13.8374682,0.755202421 13.9023537,0.95081347 C13.9672392,1.14680288 14,1.36133182 14,1.5944003 C14,1.83617102 13.9659669,2.05826712 13.8982188,2.2599319 C13.8304707,2.46159667 13.7286896,2.63526296 13.5928753,2.78017404 C13.4570611,2.92546349 13.2872137,3.03821415 13.0826972,3.11880439 C12.8781807,3.19977299 12.639313,3.23987893 12.3664122,3.23987893 L11.7821247,3.23987893 Z" id="Fill-10"/>
                        <path d="M20.0611696,2.5 C20.0611696,2.23164051 20.0249459,1.99067219 19.9521249,1.77746521 C19.8793039,1.56462837 19.7758608,1.38362452 19.6414221,1.23482381 C19.5069833,1.0860231 19.3441631,0.972016583 19.1518411,0.893174415 C18.959519,0.813962097 18.7429233,0.774726088 18.501307,0.774726088 C18.2604377,0.774726088 18.043842,0.813962097 17.8515199,0.893174415 C17.6591978,0.972016583 17.4952573,1.0860231 17.3600717,1.23482381 C17.2248861,1.38362452 17.1206961,1.56462837 17.0478751,1.77746521 C16.9746807,1.99067219 16.9388304,2.23164051 16.9388304,2.5 C16.9388304,2.76798934 16.9746807,3.00895765 17.0478751,3.22216464 C17.1206961,3.43500148 17.2248861,3.61563518 17.3600717,3.76332544 C17.4952573,3.91101569 17.6591978,4.02428191 17.8515199,4.10312407 C18.043842,4.18196624 18.2604377,4.2215724 18.501307,4.2215724 C18.7429233,4.2215724 18.959519,4.18196624 19.1518411,4.10312407 C19.3441631,4.02428191 19.5069833,3.91101569 19.6414221,3.76332544 C19.7758608,3.61563518 19.8793039,3.43500148 19.9521249,3.22216464 C20.0249459,3.00895765 20.0611696,2.76798934 20.0611696,2.5 M21,2.5 C21,2.85830619 20.9402495,3.19033166 20.8203749,3.4960764 C20.7012473,3.80145099 20.5320786,4.06610897 20.3139891,4.28931004 C20.0955262,4.5125111 19.8326238,4.68685224 19.5252819,4.81196328 C19.2183135,4.93744448 18.8769886,5 18.501307,5 C18.1282396,5 17.788035,4.93744448 17.48144,4.81196328 C17.1740981,4.68685224 16.9108223,4.5125111 16.6912391,4.28931004 C16.4716558,4.06610897 16.3017402,3.80145099 16.1807454,3.4960764 C16.060124,3.19033166 16,2.85830619 16,2.5 C16,2.14132366 16.060124,1.80929819 16.1807454,1.50355345 C16.3017402,1.19817886 16.4716558,0.933520877 16.6912391,0.71031981 C16.9108223,0.487118744 17.1740981,0.313147764 17.48144,0.188036719 C17.788035,0.0625555227 18.1282396,0 18.501307,0 C18.7518859,0 18.9875271,0.0288717797 19.2078572,0.086245188 C19.4285608,0.143618596 19.6313392,0.225051821 19.8154455,0.32980456 C19.9999253,0.43492745 20.1653596,0.561889251 20.3121219,0.712170566 C20.4588842,0.862081729 20.5836134,1.02938999 20.6859362,1.2144655 C20.788259,1.39954101 20.8663082,1.60016287 20.9197102,1.81633106 C20.9731123,2.03323956 21,2.26088244 21,2.5" id="Fill-12"/>
                        <path d="M26.0989035,2.49164972 C26.0989035,2.32355504 26.0705718,2.1648998 26.0131724,2.015684 C25.9557731,1.86610514 25.8759291,1.73576823 25.7725366,1.62394714 C25.6695121,1.51248911 25.5462506,1.42317746 25.4027522,1.35710137 C25.2596218,1.29066221 25.1014055,1.25544583 24.9284716,1.25072611 L24.9284716,3.73910834 C25.1014055,3.73511473 25.2596218,3.69953529 25.4027522,3.63309614 C25.5462506,3.56665699 25.6695121,3.47770839 25.7725366,3.36588731 C25.8759291,3.25442928 25.9557731,3.12372931 26.0131724,2.97451351 C26.0705718,2.82493465 26.0989035,2.66410107 26.0989035,2.49164972 Z M22.904408,2.49164972 C22.904408,2.66410107 22.9323718,2.82493465 22.9882994,2.97451351 C23.0445949,3.12372931 23.1240709,3.25442928 23.2274634,3.36588731 C23.3301199,3.47770839 23.4530135,3.56665699 23.595776,3.63309614 C23.7378026,3.69953529 23.8963868,3.73511473 24.0715284,3.73910834 L24.0715284,1.25072611 C23.8963868,1.25544583 23.7378026,1.29066221 23.595776,1.35710137 C23.4530135,1.42317746 23.3301199,1.51248911 23.2274634,1.62394714 C23.1240709,1.73576823 23.0445949,1.86610514 22.9882994,2.015684 C22.9323718,2.1648998 22.904408,2.32355504 22.904408,2.49164972 Z M24.9284716,0.563825152 C25.2290823,0.572901539 25.5057767,0.629175138 25.7592906,0.733009004 C26.0124365,0.837205925 26.2313636,0.975893116 26.414968,1.14979669 C26.5989403,1.32333721 26.7424387,1.52519605 26.8454632,1.75537322 C26.9484877,1.98518734 27,2.23061284 27,2.49164972 C27,2.75486494 26.9484877,3.00210572 26.8454632,3.233009 C26.7424387,3.46427534 26.5989403,3.66758641 26.414968,3.84185304 C26.2313636,4.01684577 26.0124365,4.15625908 25.7592906,4.26009294 C25.5057767,4.36392681 25.2290823,4.42056346 24.9284716,4.42927679 L24.9284716,5 L24.0715284,5 L24.0715284,4.42927679 C23.7709177,4.42056346 23.4938553,4.36392681 23.2407094,4.25864072 C22.9875635,4.15335463 22.7686364,4.01394133 22.585032,3.84040081 C22.4010597,3.6668603 22.2575613,3.46427534 22.1545368,3.233009 C22.0515123,3.00210572 22,2.75486494 22,2.49164972 C22,2.23061284 22.0515123,1.98518734 22.1545368,1.75537322 C22.2575613,1.52519605 22.4010597,1.32333721 22.585032,1.14979669 C22.7686364,0.975893116 22.9875635,0.837205925 23.2407094,0.733009004 C23.4938553,0.629175138 23.7709177,0.572901539 24.0715284,0.563825152 L24.0715284,0 L24.9284716,0 L24.9284716,0.563825152 Z" id="Fill-14"/>
                        <path d="M31.9464991,0.287173666 C31.9662478,0.252364737 31.9899461,0.218312524 32.0172352,0.183503594 C32.0445242,0.148694665 32.0743268,0.118426031 32.1073609,0.0919409762 C32.140395,0.0654559213 32.1759425,0.0435111616 32.2140036,0.0261066969 C32.2524237,0.00908059024 32.2933573,0 32.3368043,0 L33,0 L33,5 L32.1138241,5 L32.1138241,1.86757473 C32.1138241,1.74990541 32.1166966,1.62693908 32.1220826,1.49905411 C32.1278276,1.37116913 32.1389587,1.23458191 32.156553,1.08929247 C32.1127469,1.21604238 32.0657092,1.33446841 32.0154399,1.44381385 C31.9651706,1.55315929 31.9159785,1.64964056 31.8678636,1.73250095 L30.0531418,4.71320469 C30.0333932,4.74763526 30.0100539,4.78244419 29.9824057,4.81687476 C29.9554758,4.85130533 29.9253142,4.88195233 29.8922801,4.90843738 C29.859605,4.93492244 29.8236984,4.9568672 29.7842011,4.97427166 C29.7447038,4.99167613 29.7041293,5 29.6628366,5 L29,5 L29,0 L29.8861759,0 L29.8861759,3.13280363 C29.8861759,3.25047295 29.8825853,3.37495271 29.8761221,3.50624291 C29.8696589,3.63791146 29.8574506,3.77601211 29.8398564,3.92130155 C29.8836625,3.7922815 29.9310592,3.67234204 29.9824057,3.56148316 C30.0341113,3.45100265 30.0847397,3.35300795 30.135368,3.26787741 L31.9464991,0.287173666 Z" id="Fill-16"/>
                        <path d="M36.7821247,2.51381006 L37.3664122,2.51381006 C37.509542,2.51381006 37.634542,2.49262202 37.7414122,2.44986757 C37.8476463,2.40749149 37.9363868,2.3461975 38.0073155,2.26674234 C38.0779262,2.18728717 38.1307252,2.09042754 38.1657125,1.97654181 C38.2006997,1.86227771 38.2178753,1.73477109 38.2178753,1.5944003 C38.2178753,1.46083995 38.2006997,1.33938706 38.1657125,1.23117669 C38.1307252,1.12296633 38.0785623,1.03064699 38.0085878,0.954218691 C37.9389313,0.878547106 37.850827,0.820279985 37.7442748,0.779795687 C37.6374046,0.739689747 37.5114504,0.719258418 37.3664122,0.719258418 L36.7821247,0.719258418 L36.7821247,2.51381006 Z M36.7821247,3.23987893 L36.7821247,5 L36,5 L36,0 L37.3664122,0 C37.6472646,0 37.8905852,0.0393492244 38.096056,0.117669315 C38.3012087,0.195989406 38.4707379,0.305713205 38.6043257,0.446083995 C38.7382316,0.586833144 38.8374682,0.755202421 38.9023537,0.95081347 C38.9672392,1.14680288 39,1.36133182 39,1.5944003 C39,1.83617102 38.9659669,2.05826712 38.8982188,2.2599319 C38.8304707,2.46159667 38.7286896,2.63526296 38.5928753,2.78017404 C38.4570611,2.92546349 38.2872137,3.03821415 38.0826972,3.11880439 C37.8781807,3.19977299 37.639313,3.23987893 37.3664122,3.23987893 L36.7821247,3.23987893 Z" id="Fill-18"/>
                        <path d="M43.8986741,3.15512675 C43.9355199,3.23496027 43.971947,3.31479379 44.0079553,3.39538403 C44.0431263,3.31063186 44.0808095,3.22777147 44.1184927,3.14831631 C44.1570133,3.06886114 44.1976274,2.99243284 44.2411724,2.91865305 L45.8749477,0.148694665 C45.8954641,0.114264094 45.9172366,0.0862656073 45.9402652,0.0658342792 C45.9632938,0.0450245933 45.9879972,0.0298902762 46.0147941,0.020809686 C46.0415911,0.0117290957 46.0717376,0.0056753689 46.1048151,0.00340522134 C46.1378925,0.00113507378 46.1772505,0 46.2233077,0 L47,0 L47,5 L46.0935101,5 L46.0935101,1.7707151 C46.0935101,1.71055619 46.0951849,1.64472191 46.0989532,1.57321226 C46.1027216,1.50170261 46.1085834,1.42943625 46.11612,1.35565645 L44.4438241,4.19107075 C44.3646895,4.32727961 44.2436846,4.39500568 44.0808095,4.39500568 L43.9351012,4.39500568 C43.7718074,4.39500568 43.6508025,4.32727961 43.5716678,4.19107075 L41.8805304,1.34544079 C41.8876483,1.42111237 41.8943475,1.49564888 41.8993719,1.56829361 C41.9043964,1.64093833 41.9069086,1.70828604 41.9069086,1.7707151 L41.9069086,5 L41,5 L41,0 L41.777111,0 C41.8231682,0 41.8625262,0.00113507378 41.8956036,0.00340522134 C41.9286811,0.0056753689 41.9588276,0.0117290957 41.9856246,0.020809686 C42.0124215,0.0298902762 42.0367062,0.0450245933 42.0584787,0.0658342792 C42.0798325,0.0862656073 42.1007676,0.114264094 42.121284,0.148694665 L43.7780879,2.92546349 C43.8216329,2.99924328 43.8618283,3.07567159 43.8986741,3.15512675" id="Fill-20"/>
                        <path d="M49.6832105,3.11199395 L51.3167895,3.11199395 L50.6929042,1.44911086 C50.6622722,1.37533106 50.6304769,1.28830874 50.5975184,1.18766553 C50.5641722,1.08777904 50.5312136,0.978433598 50.4982551,0.861142641 C50.4652966,0.978433598 50.4327259,1.0881574 50.4005428,1.18955732 C50.3691353,1.29095725 50.3377278,1.379493 50.3070958,1.4559213 L49.6832105,3.11199395 Z M53,5 L52.2628926,5 C52.1803024,5 52.1128344,4.97994703 52.0608763,4.93946273 C52.0085304,4.89935679 51.9701435,4.84903519 51.9437767,4.78887628 L51.5610702,3.76920166 L49.4385421,3.76920166 L49.0558356,4.78887628 C49.036836,4.84222474 49.0003877,4.89065456 48.9461031,4.93416572 C48.8914308,4.9784336 48.8231873,5 48.7405971,5 L48,5 L50.0127957,0 L50.9872043,0 L53,5 Z" id="Fill-22"/>
                    </g>
                </g>
            </g>
        </g>
    </g>
<div xmlns="" id="divScriptsUsed" style="display: none"/><script xmlns="" id="globalVarsDetection" src="moz-extension://591cddca-0813-4d89-8275-357458a3ebd1/js/wrs_env.js"/></svg>